\relax 
\@writefile{toc}{\contentsline {section}{\numberline {1}Math\IeC {\'e}matiques}{1}\protected@file@percent }
\@writefile{toc}{\contentsline {section}{\numberline {2}Physique-Chimie}{4}\protected@file@percent }
