\relax 
\@writefile{toc}{\contentsline {section}{\numberline {1}Cours}{1}\protected@file@percent }
\@writefile{toc}{\contentsline {section}{\numberline {2}Une affaire pas très honnête}{2}\protected@file@percent }
