\relax 
\@writefile{toc}{\contentsline {section}{\numberline {1}Fonctions lin\IeC {\'e}aires}{1}\protected@file@percent }
\@writefile{toc}{\contentsline {subsection}{\numberline {1.1}D\IeC {\'e}finition}{1}\protected@file@percent }
\@writefile{toc}{\contentsline {subsection}{\numberline {1.2}Propri\IeC {\'e}t\IeC {\'e}s}{1}\protected@file@percent }
\@writefile{toc}{\contentsline {section}{\numberline {2}Fonctions affines}{1}\protected@file@percent }
\@writefile{toc}{\contentsline {subsection}{\numberline {2.1}Propri\IeC {\'e}t\IeC {\'e}s}{2}\protected@file@percent }
\@writefile{toc}{\contentsline {section}{\numberline {3}Exercice type}{2}\protected@file@percent }
