\relax 
\@writefile{toc}{\contentsline {section}{\numberline {1}Th\IeC {\'e}or\IeC {\`e}me de Pythagore}{1}\protected@file@percent }
\@writefile{toc}{\contentsline {section}{\numberline {2}R\IeC {\'e}ciproque du Th\IeC {\'e}or\IeC {\`e}me de Pythagore}{1}\protected@file@percent }
\@writefile{toc}{\contentsline {section}{\numberline {3}Application du th\IeC {\'e}or\IeC {\`e}me de Pythagore dans un triangle \IeC {\'e}quilat\IeC {\'e}ral}{1}\protected@file@percent }
