\relax 
\providecommand\hyper@newdestlabel[2]{}
\providecommand\HyperFirstAtBeginDocument{\AtBeginDocument}
\HyperFirstAtBeginDocument{\ifx\hyper@anchor\@undefined
\global\let\oldcontentsline\contentsline
\gdef\contentsline#1#2#3#4{\oldcontentsline{#1}{#2}{#3}}
\global\let\oldnewlabel\newlabel
\gdef\newlabel#1#2{\newlabelxx{#1}#2}
\gdef\newlabelxx#1#2#3#4#5#6{\oldnewlabel{#1}{{#2}{#3}}}
\AtEndDocument{\ifx\hyper@anchor\@undefined
\let\contentsline\oldcontentsline
\let\newlabel\oldnewlabel
\fi}
\fi}
\global\let\hyper@last\relax 
\gdef\HyperFirstAtBeginDocument#1{#1}
\providecommand\HyField@AuxAddToFields[1]{}
\providecommand\HyField@AuxAddToCoFields[2]{}
\@writefile{nav}{\headcommand {\slideentry {0}{0}{1}{1/1}{}{0}}}
\@writefile{nav}{\headcommand {\beamer@framepages {1}{1}}}
\@writefile{nav}{\headcommand {\beamer@sectionpages {1}{1}}}
\@writefile{nav}{\headcommand {\beamer@subsectionpages {1}{1}}}
\newlabel{sec:org6f57814}{{1}{2}{}{Doc-Start}{}}
\@writefile{snm}{\beamer@slide {sec:org6f57814}{2}}
\@writefile{nav}{\headcommand {\beamer@subsectionpages {2}{1}}}
\newlabel{sec:org719c6fb}{{1}{2}{}{Doc-Start}{}}
\@writefile{snm}{\beamer@slide {sec:org719c6fb}{2}}
\@writefile{nav}{\headcommand {\beamer@subsectionpages {2}{2}}}
\newlabel{sec:org54759db}{{2}{3}{}{Doc-Start}{}}
\@writefile{snm}{\beamer@slide {sec:org54759db}{3}}
\@writefile{nav}{\headcommand {\beamer@subsectionpages {3}{3}}}
\newlabel{sec:orgb7ba63e}{{3}{4}{}{Doc-Start}{}}
\@writefile{snm}{\beamer@slide {sec:orgb7ba63e}{4}}
\@writefile{nav}{\headcommand {\beamer@subsectionpages {4}{4}}}
\newlabel{sec:orgacaef11}{{4}{5}{}{Doc-Start}{}}
\@writefile{snm}{\beamer@slide {sec:orgacaef11}{5}}
\@writefile{nav}{\headcommand {\beamer@subsectionpages {5}{5}}}
\newlabel{sec:org76c6d00}{{5}{6}{}{Doc-Start}{}}
\@writefile{snm}{\beamer@slide {sec:org76c6d00}{6}}
\@writefile{nav}{\headcommand {\beamer@subsectionpages {6}{6}}}
\newlabel{sec:orgb28182e}{{6}{7}{}{Doc-Start}{}}
\@writefile{snm}{\beamer@slide {sec:orgb28182e}{7}}
\@writefile{nav}{\headcommand {\beamer@subsectionpages {7}{7}}}
\newlabel{sec:org8ac137d}{{7}{8}{}{Doc-Start}{}}
\@writefile{snm}{\beamer@slide {sec:org8ac137d}{8}}
\@writefile{nav}{\headcommand {\beamer@subsectionpages {8}{8}}}
\newlabel{sec:orgaf09f20}{{8}{9}{}{Doc-Start}{}}
\@writefile{snm}{\beamer@slide {sec:orgaf09f20}{9}}
\@writefile{nav}{\headcommand {\beamer@subsectionpages {9}{9}}}
\newlabel{sec:orgfb9d091}{{9}{10}{}{Doc-Start}{}}
\@writefile{snm}{\beamer@slide {sec:orgfb9d091}{10}}
\@writefile{nav}{\headcommand {\beamer@subsectionpages {10}{10}}}
\newlabel{sec:org7b1fb70}{{10}{11}{}{Doc-Start}{}}
\@writefile{snm}{\beamer@slide {sec:org7b1fb70}{11}}
\@writefile{nav}{\headcommand {\beamer@subsectionpages {11}{11}}}
\newlabel{sec:org28aa59e}{{11}{12}{}{Doc-Start}{}}
\@writefile{snm}{\beamer@slide {sec:org28aa59e}{12}}
\@writefile{nav}{\headcommand {\beamer@subsectionpages {12}{12}}}
\newlabel{sec:org2e0a30a}{{12}{13}{}{Doc-Start}{}}
\@writefile{snm}{\beamer@slide {sec:org2e0a30a}{13}}
\@writefile{nav}{\headcommand {\beamer@subsectionpages {13}{13}}}
\newlabel{sec:orgfc95be3}{{13}{14}{}{Doc-Start}{}}
\@writefile{snm}{\beamer@slide {sec:orgfc95be3}{14}}
\@writefile{nav}{\headcommand {\beamer@subsectionpages {14}{14}}}
\newlabel{sec:org722f126}{{14}{15}{}{Doc-Start}{}}
\@writefile{snm}{\beamer@slide {sec:org722f126}{15}}
\@writefile{nav}{\headcommand {\beamer@subsectionpages {15}{15}}}
\newlabel{sec:orgcca1f8d}{{15}{16}{}{Doc-Start}{}}
\@writefile{snm}{\beamer@slide {sec:orgcca1f8d}{16}}
\@writefile{nav}{\headcommand {\beamer@subsectionpages {16}{16}}}
\newlabel{sec:org390ed09}{{16}{17}{}{Doc-Start}{}}
\@writefile{snm}{\beamer@slide {sec:org390ed09}{17}}
\@writefile{nav}{\headcommand {\beamer@subsectionpages {17}{17}}}
\@writefile{nav}{\headcommand {\beamer@subsectionentry {0}{1}{17}{18}{En r\IeC {\'e}sum\IeC {\'e}}}}
\newlabel{sec:orgdfe2b42}{{17}{18}{En résumé}{Doc-Start}{}}
\@writefile{snm}{\beamer@slide {sec:orgdfe2b42}{18}}
\@writefile{nav}{\headcommand {\beamer@partpages {1}{18}}}
\@writefile{nav}{\headcommand {\beamer@subsectionpages {18}{18}}}
\@writefile{nav}{\headcommand {\beamer@sectionpages {2}{18}}}
\@writefile{nav}{\headcommand {\beamer@documentpages {18}}}
\@writefile{nav}{\headcommand {\gdef \inserttotalframenumber {1}}}
