\relax 
\@writefile{toc}{\contentsline {section}{\numberline {1}Tendance d'une s\IeC {\'e}rie}{1}\protected@file@percent }
\@writefile{toc}{\contentsline {section}{\numberline {2}Dispersion d'une s\IeC {\'e}rie}{3}\protected@file@percent }
