<?xml version="1.0" encoding="UTF-8" standalone="no"?>
<!-- Created with Inkscape (http://www.inkscape.org/) -->

<svg
   xmlns:dc="http://purl.org/dc/elements/1.1/"
   xmlns:cc="http://creativecommons.org/ns#"
   xmlns:rdf="http://www.w3.org/1999/02/22-rdf-syntax-ns#"
   xmlns:svg="http://www.w3.org/2000/svg"
   xmlns="http://www.w3.org/2000/svg"
   xmlns:sodipodi="http://sodipodi.sourceforge.net/DTD/sodipodi-0.dtd"
   xmlns:inkscape="http://www.inkscape.org/namespaces/inkscape"
   width="210mm"
   height="297mm"
   viewBox="0 0 210 297"
   version="1.1"
   id="svg8"
   inkscape:version="0.92.4 5da689c313, 2019-01-14"
   sodipodi:docname="thales.svg">
  <defs
     id="defs2" />
  <sodipodi:namedview
     id="base"
     pagecolor="#ffffff"
     bordercolor="#666666"
     borderopacity="1.0"
     inkscape:pageopacity="0.0"
     inkscape:pageshadow="2"
     inkscape:zoom="1.6051389"
     inkscape:cx="396.85039"
     inkscape:cy="677.20503"
     inkscape:document-units="mm"
     inkscape:current-layer="layer1"
     showgrid="false"
     inkscape:window-width="1920"
     inkscape:window-height="1021"
     inkscape:window-x="0"
     inkscape:window-y="31"
     inkscape:window-maximized="1" />
  <metadata
     id="metadata5">
    <rdf:RDF>
      <cc:Work
         rdf:about="">
        <dc:format>image/svg+xml</dc:format>
        <dc:type
           rdf:resource="http://purl.org/dc/dcmitype/StillImage" />
        <dc:title></dc:title>
      </cc:Work>
    </rdf:RDF>
  </metadata>
  <g
     inkscape:label="Calque 1"
     inkscape:groupmode="layer"
     id="layer1">
    <path
       style="fill:none;stroke:#000000;stroke-width:0.26458332px;stroke-linecap:butt;stroke-linejoin:miter;stroke-opacity:1"
       d="M 19.276787,161.30654 40.821429,83.821428 91.848218,155.25893"
       id="path4518"
       inkscape:connector-curvature="0"
       inkscape:export-xdpi="171"
       inkscape:export-ydpi="171" />
    <path
       style="fill:none;stroke:#000000;stroke-width:0.26458332px;stroke-linecap:butt;stroke-linejoin:miter;stroke-opacity:1"
       d="M 6.8035716,115.19345 H 101.6756"
       id="path4520"
       inkscape:connector-curvature="0"
       inkscape:export-xdpi="171"
       inkscape:export-ydpi="171" />
    <path
       style="fill:none;stroke:#000000;stroke-width:0.26458332px;stroke-linecap:butt;stroke-linejoin:miter;stroke-opacity:1"
       d="M 9.4494046,136.73809 H 96.761908"
       id="path4522"
       inkscape:connector-curvature="0"
       inkscape:export-xdpi="171"
       inkscape:export-ydpi="171" />
    <path
       style="fill:none;stroke:#000000;stroke-width:0.26458332px;stroke-linecap:butt;stroke-linejoin:miter;stroke-opacity:1"
       d="m 122.46428,151.10119 46.1131,-72.193453"
       id="path4524"
       inkscape:connector-curvature="0"
       inkscape:export-xdpi="171"
       inkscape:export-ydpi="171" />
    <path
       style="fill:none;stroke:#000000;stroke-width:0.26458332px;stroke-linecap:butt;stroke-linejoin:miter;stroke-opacity:1"
       d="m 133.04762,81.931546 38.55357,69.547614"
       id="path4526"
       inkscape:connector-curvature="0"
       inkscape:export-xdpi="171"
       inkscape:export-ydpi="171" />
    <path
       style="fill:none;stroke:#000000;stroke-width:0.26458332px;stroke-linecap:butt;stroke-linejoin:miter;stroke-opacity:1"
       d="m 120.95238,132.58035 h 68.79167"
       id="path4528"
       inkscape:connector-curvature="0"
       inkscape:export-xdpi="171"
       inkscape:export-ydpi="171" />
    <path
       style="fill:none;stroke:#000000;stroke-width:0.26458332px;stroke-linecap:butt;stroke-linejoin:miter;stroke-opacity:1"
       d="m 131.15774,95.916664 h 46.11309"
       id="path4532"
       inkscape:connector-curvature="0"
       inkscape:export-xdpi="171"
       inkscape:export-ydpi="171" />
    <text
       xml:space="preserve"
       style="font-style:normal;font-weight:normal;font-size:4.23333311px;line-height:1.25;font-family:sans-serif;letter-spacing:0px;word-spacing:0px;fill:#000000;fill-opacity:1;stroke:none;stroke-width:0.26458332"
       x="41.199402"
       y="83.254471"
       id="text4536"
       inkscape:export-xdpi="171"
       inkscape:export-ydpi="171"><tspan
         sodipodi:role="line"
         id="tspan4534"
         x="41.199402"
         y="83.254471"
         style="stroke-width:0.26458332">O</tspan></text>
    <text
       xml:space="preserve"
       style="font-style:normal;font-weight:normal;font-size:4.23333311px;line-height:1.25;font-family:sans-serif;letter-spacing:0px;word-spacing:0px;fill:#000000;fill-opacity:1;stroke:none;stroke-width:0.26458332"
       x="26.647322"
       y="119.54017"
       id="text4540"
       inkscape:export-xdpi="171"
       inkscape:export-ydpi="171"><tspan
         sodipodi:role="line"
         id="tspan4538"
         x="26.647322"
         y="119.54017"
         style="stroke-width:0.26458332">A</tspan></text>
    <text
       xml:space="preserve"
       style="font-style:normal;font-weight:normal;font-size:4.23333311px;line-height:1.25;font-family:sans-serif;letter-spacing:0px;word-spacing:0px;fill:#000000;fill-opacity:1;stroke:none;stroke-width:0.26458332"
       x="60.098209"
       y="119.72916"
       id="text4544"
       inkscape:export-xdpi="171"
       inkscape:export-ydpi="171"><tspan
         sodipodi:role="line"
         id="tspan4542"
         x="60.098209"
         y="119.72916"
         style="stroke-width:0.26458332">B</tspan></text>
    <text
       xml:space="preserve"
       style="font-style:normal;font-weight:normal;font-size:4.23333311px;line-height:1.25;font-family:sans-serif;letter-spacing:0px;word-spacing:0px;fill:#000000;fill-opacity:1;stroke:none;stroke-width:0.26458332"
       x="20.221729"
       y="141.65179"
       id="text4548"
       inkscape:export-xdpi="171"
       inkscape:export-ydpi="171"><tspan
         sodipodi:role="line"
         id="tspan4546"
         x="20.221729"
         y="141.65179"
         style="stroke-width:0.26458332">M</tspan></text>
    <text
       xml:space="preserve"
       style="font-style:normal;font-weight:normal;font-size:4.23333311px;line-height:1.25;font-family:sans-serif;letter-spacing:0px;word-spacing:0px;fill:#000000;fill-opacity:1;stroke:none;stroke-width:0.26458332"
       x="76.162201"
       y="142.59673"
       id="text4552"
       inkscape:export-xdpi="171"
       inkscape:export-ydpi="171"><tspan
         sodipodi:role="line"
         id="tspan4550"
         x="76.162201"
         y="142.59673"
         style="stroke-width:0.26458332">N</tspan></text>
    <text
       xml:space="preserve"
       style="font-style:normal;font-weight:normal;font-size:4.23333311px;line-height:1.25;font-family:sans-serif;letter-spacing:0px;word-spacing:0px;fill:#000000;fill-opacity:1;stroke:none;stroke-width:0.26458332"
       x="143.28783"
       y="112.38772"
       id="text4536-3"
       inkscape:export-xdpi="171"
       inkscape:export-ydpi="171"><tspan
         sodipodi:role="line"
         id="tspan4534-6"
         x="143.28783"
         y="112.38772"
         style="stroke-width:0.26458332">O</tspan></text>
    <text
       xml:space="preserve"
       style="font-style:normal;font-weight:normal;font-size:4.23333311px;line-height:1.25;font-family:sans-serif;letter-spacing:0px;word-spacing:0px;fill:#000000;fill-opacity:1;stroke:none;stroke-width:0.26458332"
       x="163.47694"
       y="136.18658"
       id="text4540-7"
       inkscape:export-xdpi="171"
       inkscape:export-ydpi="171"><tspan
         sodipodi:role="line"
         id="tspan4538-5"
         x="163.47694"
         y="136.18658"
         style="stroke-width:0.26458332">A</tspan></text>
    <text
       xml:space="preserve"
       style="font-style:normal;font-weight:normal;font-size:4.23333311px;line-height:1.25;font-family:sans-serif;letter-spacing:0px;word-spacing:0px;fill:#000000;fill-opacity:1;stroke:none;stroke-width:0.26458332"
       x="134.32495"
       y="136.56035"
       id="text4544-3"
       inkscape:export-xdpi="171"
       inkscape:export-ydpi="171"><tspan
         sodipodi:role="line"
         id="tspan4542-5"
         x="134.32495"
         y="136.56035"
         style="stroke-width:0.26458332">B</tspan></text>
    <text
       xml:space="preserve"
       style="font-style:normal;font-weight:normal;font-size:4.23333311px;line-height:1.25;font-family:sans-serif;letter-spacing:0px;word-spacing:0px;fill:#000000;fill-opacity:1;stroke:none;stroke-width:0.26458332"
       x="140.48074"
       y="95.002876"
       id="text4548-6"
       inkscape:export-xdpi="171"
       inkscape:export-ydpi="171"><tspan
         sodipodi:role="line"
         id="tspan4546-2"
         x="140.48074"
         y="95.002876"
         style="stroke-width:0.26458332">M</tspan></text>
    <text
       xml:space="preserve"
       style="font-style:normal;font-weight:normal;font-size:4.23333311px;line-height:1.25;font-family:sans-serif;letter-spacing:0px;word-spacing:0px;fill:#000000;fill-opacity:1;stroke:none;stroke-width:0.26458332"
       x="161.13538"
       y="95.002876"
       id="text4552-9"
       inkscape:export-xdpi="171"
       inkscape:export-ydpi="171"><tspan
         sodipodi:role="line"
         id="tspan4550-1"
         x="161.13538"
         y="95.002876"
         style="stroke-width:0.26458332">N</tspan></text>
  </g>
</svg>
