\relax 
\@writefile{toc}{\contentsline {section}{\numberline {1}Le probl\IeC {\`e}me initial}{1}\protected@file@percent }
\@writefile{toc}{\contentsline {section}{\numberline {2}La r\IeC {\'e}action d'oxydo-r\IeC {\'e}duction}{1}\protected@file@percent }
\@writefile{toc}{\contentsline {section}{\numberline {3}Protection des m\IeC {\'e}taux contre la corrosion}{2}\protected@file@percent }
\@writefile{toc}{\contentsline {section}{\numberline {4}Exercices}{2}\protected@file@percent }
\@writefile{toc}{\contentsline {subsection}{\numberline {4.1}}{2}\protected@file@percent }
\@writefile{toc}{\contentsline {subsection}{\numberline {4.2}}{2}\protected@file@percent }
\@writefile{toc}{\contentsline {subsection}{\numberline {4.3}La corrosion par effet de pile}{2}\protected@file@percent }
