\relax 
\@writefile{toc}{\contentsline {section}{\numberline {1}Mouvements uniformes}{1}\protected@file@percent }
\@writefile{toc}{\contentsline {section}{\numberline {2}Mouvements uniformément accelérés}{2}\protected@file@percent }
\@writefile{toc}{\contentsline {section}{\numberline {3}Forces et actions mécaniques}{2}\protected@file@percent }
