\relax 
\@writefile{toc}{\contentsline {section}{\numberline {1}Mouvements uniformes}{1}\protected@file@percent }
\@writefile{toc}{\contentsline {subsection}{\numberline {1.1}Vitesse d'un corps}{1}\protected@file@percent }
\@writefile{toc}{\contentsline {subsection}{\numberline {1.2}Notion de vecteur}{1}\protected@file@percent }
\@writefile{toc}{\contentsline {section}{\numberline {2}Mouvements accelérés}{2}\protected@file@percent }
\@writefile{toc}{\contentsline {section}{\numberline {3}Forces et actions mécaniques}{3}\protected@file@percent }
\@writefile{toc}{\contentsline {subsection}{\numberline {3.1}Le champ de pesanteur}{3}\protected@file@percent }
\@writefile{toc}{\contentsline {subsection}{\numberline {3.2}La première loi et le principe d'inertie}{4}\protected@file@percent }
