\relax 
\@writefile{toc}{\contentsline {section}{\numberline {1}Aires et p\IeC {\'e}rim\IeC {\`e}tre}{1}\protected@file@percent }
\@writefile{toc}{\contentsline {section}{\numberline {2}Volumes}{2}\protected@file@percent }
\@writefile{toc}{\contentsline {subsection}{\numberline {2.1}Le Cube}{2}\protected@file@percent }
\@writefile{toc}{\contentsline {subsection}{\numberline {2.2}Le pav\IeC {\'e} droit}{3}\protected@file@percent }
\@writefile{toc}{\contentsline {subsection}{\numberline {2.3}Le prisme droit}{3}\protected@file@percent }
\@writefile{toc}{\contentsline {subsection}{\numberline {2.4}La pyramide}{4}\protected@file@percent }
\@writefile{toc}{\contentsline {subsection}{\numberline {2.5}Le Cone}{4}\protected@file@percent }
\@writefile{toc}{\contentsline {subsection}{\numberline {2.6}Le cylindre}{5}\protected@file@percent }
\@writefile{toc}{\contentsline {subsection}{\numberline {2.7}La boule}{5}\protected@file@percent }
\@writefile{toc}{\contentsline {section}{\numberline {3}La masse volumique}{6}\protected@file@percent }
