\relax 
\@writefile{toc}{\contentsline {section}{\numberline {1}Synth\IeC {\`e}se du dernier TP}{1}\protected@file@percent }
\@writefile{toc}{\contentsline {section}{\numberline {2}Production d'hydrog\IeC {\`e}ne}{1}\protected@file@percent }
\@writefile{toc}{\contentsline {section}{\numberline {3}La pile \IeC {\`a} combustible}{2}\protected@file@percent }
\@writefile{toc}{\contentsline {section}{\numberline {4}Le lithium}{2}\protected@file@percent }
\@writefile{toc}{\contentsline {section}{\numberline {5}Le v\IeC {\'e}lo \IeC {\`a} hydrog\IeC {\`e}ne}{3}\protected@file@percent }
\@writefile{toc}{\contentsline {section}{\numberline {6}Conclusion}{4}\protected@file@percent }
