\relax 
\@writefile{toc}{\contentsline {section}{\numberline {1}Rappels sur l'oxydo-r\IeC {\'e}duction}{1}\protected@file@percent }
\@writefile{toc}{\contentsline {section}{\numberline {2}La pile Daniell}{1}\protected@file@percent }
\@writefile{toc}{\contentsline {section}{\numberline {3}La pile \IeC {\`a} combustible}{2}\protected@file@percent }
\@writefile{toc}{\contentsline {section}{\numberline {4}Batteries et accumulateurs}{3}\protected@file@percent }
