\relax 
\csname auxWARNINGi\endcsname {\typeout {-34- this file and other auxiliary files require to use the following}}
\csname auxWARNINGi\endcsname {\typeout {-34- LaTeX packages: e-french!}}
\csname auxWARNINGi\endcsname {\typeout {-34- check \protect \usepackage \space or remove these files. Typesetting is aborted!}\stop }
\@writefile{toc}{\contentsline {section}{\numberline {1}La température}{1}\protected@file@percent }
