\relax 
\@writefile{toc}{\contentsline {section}{\numberline {1}L'intensité (un débit)}{1}\protected@file@percent }
\@writefile{toc}{\contentsline {section}{\numberline {2}La tension (une pression)}{1}\protected@file@percent }
\@writefile{toc}{\contentsline {section}{\numberline {3}Résistance}{2}\protected@file@percent }
\@writefile{toc}{\contentsline {section}{\numberline {4}Puissance}{3}\protected@file@percent }
\@writefile{toc}{\contentsline {section}{\numberline {5}Énergie}{4}\protected@file@percent }
\@writefile{toc}{\contentsline {section}{\numberline {6}Alternatif ou continu}{4}\protected@file@percent }
\@writefile{toc}{\contentsline {section}{\numberline {7}Produire de l'électricité - Le cas de la France}{6}\protected@file@percent }
