\relax 
\@writefile{toc}{\contentsline {section}{\numberline {1}Extraire les informations}{1}\protected@file@percent }
\@writefile{toc}{\contentsline {section}{\numberline {2}Réaliser}{2}\protected@file@percent }
\@writefile{toc}{\contentsline {section}{\numberline {3}Conclure}{2}\protected@file@percent }
