\relax 
\@writefile{toc}{\contentsline {section}{\numberline {1}Addition}{1}\protected@file@percent }
\@writefile{toc}{\contentsline {section}{\numberline {2}Soustraction}{1}\protected@file@percent }
