<?xml version="1.0" encoding="UTF-8" standalone="no"?>
<!-- Created with Inkscape (http://www.inkscape.org/) -->

<svg
   xmlns:dc="http://purl.org/dc/elements/1.1/"
   xmlns:cc="http://creativecommons.org/ns#"
   xmlns:rdf="http://www.w3.org/1999/02/22-rdf-syntax-ns#"
   xmlns:svg="http://www.w3.org/2000/svg"
   xmlns="http://www.w3.org/2000/svg"
   xmlns:sodipodi="http://sodipodi.sourceforge.net/DTD/sodipodi-0.dtd"
   xmlns:inkscape="http://www.inkscape.org/namespaces/inkscape"
   width="210mm"
   height="297mm"
   viewBox="0 0 210 297"
   version="1.1"
   id="svg875"
   inkscape:version="0.92.4 5da689c313, 2019-01-14"
   sodipodi:docname="gamma.svg">
  <defs
     id="defs869" />
  <sodipodi:namedview
     id="base"
     pagecolor="#ffffff"
     bordercolor="#666666"
     borderopacity="1.0"
     inkscape:pageopacity="0.0"
     inkscape:pageshadow="2"
     inkscape:zoom="2.8"
     inkscape:cx="268.70448"
     inkscape:cy="682.48599"
     inkscape:document-units="mm"
     inkscape:current-layer="layer1"
     showgrid="false"
     inkscape:window-width="1920"
     inkscape:window-height="1021"
     inkscape:window-x="0"
     inkscape:window-y="31"
     inkscape:window-maximized="1" />
  <metadata
     id="metadata872">
    <rdf:RDF>
      <cc:Work
         rdf:about="">
        <dc:format>image/svg+xml</dc:format>
        <dc:type
           rdf:resource="http://purl.org/dc/dcmitype/StillImage" />
        <dc:title></dc:title>
      </cc:Work>
    </rdf:RDF>
  </metadata>
  <g
     inkscape:label="Calque 1"
     inkscape:groupmode="layer"
     id="layer1">
    <path
       style="fill:none;stroke:#000000;stroke-width:0.26458332px;stroke-linecap:butt;stroke-linejoin:miter;stroke-opacity:1"
       d="M 99.02976,78.151785 98.651784,153.36905"
       id="path1420"
       inkscape:connector-curvature="0"
       inkscape:export-xdpi="95"
       inkscape:export-ydpi="95" />
    <path
       style="fill:none;stroke:#000000;stroke-width:0.26458332px;stroke-linecap:butt;stroke-linejoin:miter;stroke-opacity:1"
       d="M 87.866823,90.368228 H 109.38202"
       id="path1422"
       inkscape:connector-curvature="0"
       inkscape:export-xdpi="95"
       inkscape:export-ydpi="95" />
    <path
       style="fill:none;stroke:#000000;stroke-width:0.26458332px;stroke-linecap:butt;stroke-linejoin:miter;stroke-opacity:1"
       d="M 87.405817,128.52964 H 108.92102"
       id="path1422-3"
       inkscape:connector-curvature="0"
       inkscape:export-xdpi="95"
       inkscape:export-ydpi="95" />
    <g
       id="g1451"
       transform="translate(25.135417,-7.1815476)"
       inkscape:export-xdpi="95"
       inkscape:export-ydpi="95">
      <text
         id="text1441"
         y="98.845978"
         x="57.92485"
         style="font-style:normal;font-weight:normal;font-size:4.23333311px;line-height:1.25;font-family:sans-serif;letter-spacing:0px;word-spacing:0px;fill:#000000;fill-opacity:1;stroke:none;stroke-width:0.26458332"
         xml:space="preserve"><tspan
           style="stroke-width:0.26458332"
           y="98.845978"
           x="57.92485"
           id="tspan1439"
           sodipodi:role="line">H</tspan></text>
      <text
         id="text1445"
         y="96.389137"
         x="60.381691"
         style="font-style:normal;font-weight:normal;font-size:4.23333311px;line-height:1.25;font-family:sans-serif;letter-spacing:0px;word-spacing:0px;fill:#000000;fill-opacity:1;stroke:none;stroke-width:0.26458332"
         xml:space="preserve"><tspan
           style="stroke-width:0.26458332;font-size:3.175px"
           y="96.389137"
           x="60.381691"
           id="tspan1443"
           sodipodi:role="line">+</tspan></text>
    </g>
    <text
       xml:space="preserve"
       style="font-style:normal;font-weight:normal;font-size:4.23333311px;line-height:1.25;font-family:sans-serif;letter-spacing:0px;word-spacing:0px;fill:#000000;fill-opacity:1;stroke:none;stroke-width:0.26458332"
       x="80.9814"
       y="130.78497"
       id="text1455"
       inkscape:export-xdpi="95"
       inkscape:export-ydpi="95"><tspan
         sodipodi:role="line"
         id="tspan1453"
         x="80.9814"
         y="130.78497"
         style="stroke-width:0.26458332">Zn</tspan></text>
    <text
       xml:space="preserve"
       style="font-style:normal;font-weight:normal;font-size:4.23333311px;line-height:1.25;font-family:sans-serif;letter-spacing:0px;word-spacing:0px;fill:#000000;fill-opacity:1;stroke:none;stroke-width:0.26458332"
       x="84.95015"
       y="127.47767"
       id="text1459"
       inkscape:export-xdpi="95"
       inkscape:export-ydpi="95"><tspan
         sodipodi:role="line"
         id="tspan1457"
         x="84.95015"
         y="127.47767"
         style="stroke-width:0.26458332;font-size:3.175px">2+</tspan></text>
    <text
       xml:space="preserve"
       style="font-style:normal;font-weight:normal;font-size:4.23333311px;line-height:1.25;font-family:sans-serif;letter-spacing:0px;word-spacing:0px;fill:#000000;fill-opacity:1;stroke:none;stroke-width:0.26458332"
       x="110.40257"
       y="130.34366"
       id="text1455-5"
       inkscape:export-xdpi="95"
       inkscape:export-ydpi="95"><tspan
         sodipodi:role="line"
         id="tspan1453-6"
         x="110.40257"
         y="130.34366"
         style="stroke-width:0.26458332">Zn</tspan></text>
    <g
       id="g1451-2"
       transform="translate(52.11395,-7.3201864)"
       inkscape:export-xdpi="95"
       inkscape:export-ydpi="95">
      <text
         id="text1441-9"
         y="98.845978"
         x="57.92485"
         style="font-style:normal;font-weight:normal;font-size:4.23333311px;line-height:1.25;font-family:sans-serif;letter-spacing:0px;word-spacing:0px;fill:#000000;fill-opacity:1;stroke:none;stroke-width:0.26458332"
         xml:space="preserve"><tspan
           style="stroke-width:0.26458332"
           y="98.845978"
           x="57.92485"
           id="tspan1439-1"
           sodipodi:role="line">H</tspan></text>
      <text
         id="text1445-2"
         y="96.389137"
         x="60.381691"
         style="font-style:normal;font-weight:normal;font-size:4.23333311px;line-height:1.25;font-family:sans-serif;letter-spacing:0px;word-spacing:0px;fill:#000000;fill-opacity:1;stroke:none;stroke-width:0.26458332"
         xml:space="preserve"><tspan
           style="font-size:3.17499995px;stroke-width:0.26458332"
           y="100.13464"
           x="60.381691"
           id="tspan1443-7"
           sodipodi:role="line" /></text>
    </g>
    <text
       xml:space="preserve"
       style="font-style:normal;font-weight:normal;font-size:3.17499995px;line-height:1.25;font-family:sans-serif;letter-spacing:0px;word-spacing:0px;fill:#000000;fill-opacity:1;stroke:none;stroke-width:0.26458332"
       x="113.29836"
       y="93.081833"
       id="text1508"
       inkscape:export-xdpi="95"
       inkscape:export-ydpi="95"><tspan
         sodipodi:role="line"
         id="tspan1506"
         x="113.29836"
         y="93.081833"
         style="font-size:3.17499995px;stroke-width:0.26458332">2</tspan></text>
  </g>
</svg>
