<?xml version="1.0" encoding="UTF-8" standalone="no"?>
<!-- Created with Inkscape (http://www.inkscape.org/) -->

<svg
   xmlns:dc="http://purl.org/dc/elements/1.1/"
   xmlns:cc="http://creativecommons.org/ns#"
   xmlns:rdf="http://www.w3.org/1999/02/22-rdf-syntax-ns#"
   xmlns:svg="http://www.w3.org/2000/svg"
   xmlns="http://www.w3.org/2000/svg"
   xmlns:sodipodi="http://sodipodi.sourceforge.net/DTD/sodipodi-0.dtd"
   xmlns:inkscape="http://www.inkscape.org/namespaces/inkscape"
   width="210mm"
   height="297mm"
   viewBox="0 0 210 297"
   version="1.1"
   id="svg8"
   inkscape:version="0.92.4 5da689c313, 2019-01-14"
   sodipodi:docname="r.svg">
  <defs
     id="defs2" />
  <sodipodi:namedview
     id="base"
     pagecolor="#ffffff"
     bordercolor="#666666"
     borderopacity="1.0"
     inkscape:pageopacity="0.0"
     inkscape:pageshadow="2"
     inkscape:zoom="1.979899"
     inkscape:cx="526.21242"
     inkscape:cy="444.21156"
     inkscape:document-units="mm"
     inkscape:current-layer="layer1"
     showgrid="false"
     inkscape:window-width="1920"
     inkscape:window-height="1021"
     inkscape:window-x="0"
     inkscape:window-y="31"
     inkscape:window-maximized="1" />
  <metadata
     id="metadata5">
    <rdf:RDF>
      <cc:Work
         rdf:about="">
        <dc:format>image/svg+xml</dc:format>
        <dc:type
           rdf:resource="http://purl.org/dc/dcmitype/StillImage" />
        <dc:title></dc:title>
      </cc:Work>
    </rdf:RDF>
  </metadata>
  <g
     inkscape:label="Calque 1"
     inkscape:groupmode="layer"
     id="layer1">
    <path
       style="fill:none;stroke:#000000;stroke-width:0.26458332px;stroke-linecap:butt;stroke-linejoin:miter;stroke-opacity:1"
       d="m 37.986607,134.75372 133.937883,0"
       id="path838"
       inkscape:connector-curvature="0"
       sodipodi:nodetypes="cc"
       inkscape:export-xdpi="94.820076"
       inkscape:export-ydpi="94.820076" />
    <rect
       style="opacity:1;fill:#fffffa;fill-opacity:1;stroke:#000000;stroke-width:0.665;stroke-miterlimit:4;stroke-dasharray:none;stroke-dashoffset:0;stroke-opacity:1"
       id="rect815"
       width="29.293154"
       height="13.79613"
       x="47.436012"
       y="128.18639"
       inkscape:export-xdpi="94.820076"
       inkscape:export-ydpi="94.820076" />
    <rect
       style="opacity:1;fill:#ffffff;fill-opacity:1;stroke:#000000;stroke-width:0.66500002;stroke-miterlimit:4;stroke-dasharray:none;stroke-dashoffset:0;stroke-opacity:1"
       id="rect815-3"
       width="29.293156"
       height="13.796131"
       x="87.076248"
       y="128.18639"
       inkscape:export-xdpi="94.820076"
       inkscape:export-ydpi="94.820076" />
    <rect
       style="opacity:1;fill:#ffffff;fill-opacity:1;stroke:#000000;stroke-width:0.66500002;stroke-miterlimit:4;stroke-dasharray:none;stroke-dashoffset:0;stroke-opacity:1"
       id="rect815-6"
       width="29.293156"
       height="13.796131"
       x="126.71651"
       y="128.18639"
       inkscape:export-xdpi="94.820076"
       inkscape:export-ydpi="94.820076" />
    <text
       xml:space="preserve"
       style="font-style:normal;font-weight:normal;font-size:6.22940779px;line-height:1.25;font-family:sans-serif;letter-spacing:0px;word-spacing:0px;fill:#000000;fill-opacity:1;stroke:none;stroke-width:0.38933799"
       x="49.893742"
       y="137.01093"
       id="text842"
       inkscape:export-xdpi="94.820076"
       inkscape:export-ydpi="94.820076"><tspan
         sodipodi:role="line"
         id="tspan840"
         x="49.893742"
         y="137.01093"
         style="stroke-width:0.38933799">15 ohm</tspan></text>
    <text
       xml:space="preserve"
       style="font-style:normal;font-weight:normal;font-size:6.22940779px;line-height:1.25;font-family:sans-serif;letter-spacing:0px;word-spacing:0px;fill:#000000;fill-opacity:1;stroke:none;stroke-width:0.38933799"
       x="89.884926"
       y="137.08974"
       id="text842-0"
       inkscape:export-xdpi="94.820076"
       inkscape:export-ydpi="94.820076"><tspan
         sodipodi:role="line"
         id="tspan840-3"
         x="89.884926"
         y="137.08974"
         style="stroke-width:0.38933799">20 ohm</tspan></text>
    <text
       xml:space="preserve"
       style="font-style:normal;font-weight:normal;font-size:6.22940779px;line-height:1.25;font-family:sans-serif;letter-spacing:0px;word-spacing:0px;fill:#000000;fill-opacity:1;stroke:none;stroke-width:0.38933799"
       x="129.03992"
       y="137.22337"
       id="text842-9"
       inkscape:export-xdpi="94.820076"
       inkscape:export-ydpi="94.820076"><tspan
         sodipodi:role="line"
         id="tspan840-1"
         x="129.03992"
         y="137.22337"
         style="stroke-width:0.38933799">30 ohm</tspan></text>
    <path
       style="fill:none;stroke:#000000;stroke-width:0.26458332px;stroke-linecap:butt;stroke-linejoin:miter;stroke-opacity:1"
       d="m 86.844669,161.02999 84.493021,0"
       id="path838-6"
       inkscape:connector-curvature="0"
       sodipodi:nodetypes="cc"
       inkscape:export-xdpi="127.8688"
       inkscape:export-ydpi="127.8688" />
    <path
       style="fill:none;stroke:#000000;stroke-width:0.26458332px;stroke-linecap:butt;stroke-linejoin:miter;stroke-opacity:1"
       d="m 86.176494,198.24391 84.760296,0"
       id="path838-6-0"
       inkscape:connector-curvature="0"
       sodipodi:nodetypes="cc"
       inkscape:export-xdpi="127.8688"
       inkscape:export-ydpi="127.8688" />
    <path
       style="fill:none;stroke:#000000;stroke-width:0.26458332px;stroke-linecap:butt;stroke-linejoin:miter;stroke-opacity:1"
       d="m 171.33769,161.02999 v 37.61482"
       id="path927"
       inkscape:connector-curvature="0"
       inkscape:export-xdpi="127.8688"
       inkscape:export-ydpi="127.8688" />
    <path
       style="fill:none;stroke:#000000;stroke-width:0.26458332px;stroke-linecap:butt;stroke-linejoin:miter;stroke-opacity:1"
       d="M 130.16026,161.22708 V 197.843"
       id="path929"
       inkscape:connector-curvature="0"
       inkscape:export-xdpi="127.8688"
       inkscape:export-ydpi="127.8688" />
    <rect
       style="opacity:1;fill:#fffffa;fill-opacity:1;stroke:#000000;stroke-width:0.66500002;stroke-miterlimit:4;stroke-dasharray:none;stroke-dashoffset:0;stroke-opacity:1"
       id="rect815-0"
       width="29.293156"
       height="13.796131"
       x="115.38005"
       y="172.36971"
       inkscape:export-xdpi="127.8688"
       inkscape:export-ydpi="127.8688" />
    <rect
       style="opacity:1;fill:#fffffa;fill-opacity:1;stroke:#000000;stroke-width:0.66500002;stroke-miterlimit:4;stroke-dasharray:none;stroke-dashoffset:0;stroke-opacity:1"
       id="rect815-4"
       width="29.293156"
       height="13.796131"
       x="155.87138"
       y="172.36971"
       inkscape:export-xdpi="127.8688"
       inkscape:export-ydpi="127.8688" />
    <text
       xml:space="preserve"
       style="font-style:normal;font-weight:normal;font-size:6.22940779px;line-height:1.25;font-family:sans-serif;letter-spacing:0px;word-spacing:0px;fill:#000000;fill-opacity:1;stroke:none;stroke-width:0.38933799"
       x="117.94823"
       y="181.59012"
       id="text842-6"
       inkscape:export-xdpi="127.8688"
       inkscape:export-ydpi="127.8688"><tspan
         sodipodi:role="line"
         id="tspan840-2"
         x="117.94823"
         y="181.59012"
         style="stroke-width:0.38933799">5 ohm</tspan></text>
    <text
       xml:space="preserve"
       style="font-style:normal;font-weight:normal;font-size:6.22940779px;line-height:1.25;font-family:sans-serif;letter-spacing:0px;word-spacing:0px;fill:#000000;fill-opacity:1;stroke:none;stroke-width:0.38933799"
       x="158.70683"
       y="181.99103"
       id="text842-67"
       inkscape:export-xdpi="127.8688"
       inkscape:export-ydpi="127.8688"><tspan
         sodipodi:role="line"
         id="tspan840-5"
         x="158.70683"
         y="181.99103"
         style="stroke-width:0.38933799">10 ohm</tspan></text>
  </g>
</svg>
