\relax 
\@writefile{toc}{\contentsline {section}{\numberline {1}D\IeC {\'e}velopper}{1}\protected@file@percent }
\@writefile{toc}{\contentsline {section}{\numberline {2}Factoriser}{2}\protected@file@percent }
