\relax 
\@writefile{toc}{\contentsline {section}{\numberline {1}Connaître le cours}{1}\protected@file@percent }
\@writefile{toc}{\contentsline {section}{\numberline {2}Réaliser}{2}\protected@file@percent }
